EDI_BSCHG_20151005
TableName	Actflag	Created	Changed	BschgID	SecID	ISIN	NotificationDate	OldBondType	NewBondType	OldCurenCD	NewCurenCD	OldPIU	NewPIU	OldInterestBasis	NewInterestBasis	Eventtype	OldInterestCurrency	NewInterestCurrency	OldMaturityCurrency	NewMaturityCurrency	OldIntBusDayConv	NewIntBusDayConv	OldMatBusDayConv	NewMatBusDayConv	Notes
EDI_ENDOFFILE
