EDI_SCMST_20151005
TableName	Actflag	Created	Changed	SecID	ISIN	ParentSecID	IssID	SectyCD	SecurityDesc	Statusflag	PrimaryExchgCD	CurenCD	ParValue	USCode	CommonCode	Holding	StructCD	WKN	RegS144A	Notes
SCMST	U	2015/10/01	2015/10/05	4616910	XS1293483050		52890	BND	ZC BD CONVERT 16/10/2020 JPY 10000000	A	JPBND	JPY	10000000.00000		129348305	REG				
SCMST	U	2010/11/02	2015/10/05	2182377	DE000A1AYDS2		142674	BND	2% BD REDEXH 08/11/2017 EUR 50000 - Reg S	A	DEFSX	EUR	50000.00000		055581584	BR		A1AYDS	REGS	
SCMST	U	2012/05/14	2015/10/05	3797551	US783764AQ64		38510	BND	1.625% NT REDEXH 15/05/2018 USD 1000	A	USNYSE	USD	1000.00000	783764AQ6	078481099	BE				
SCMST	U	2013/05/15	2015/10/05	4037992	US783764AS21		38510	BND	0.25% NT REDEXH 01/06/2019 USD 1000	A	USNYSE	USD	1000.00000	783764AS2	093633776	BR				
SCMST	U	2014/06/27	2015/10/05	4296960	US697435AA30		151080	BND	ZC NT CONVERT 01/07/2019 USD 1000 - 144A	I	USBND	USD	1000.00000	697435AA3	108385545	REG			144A	
SCMST	U	2015/05/23	2015/10/05	4517595	XS1239210112		116993	BND	FXDFR CS PERPETUAL USD 250000 - REG S	A	SGSSE	USD	250000.00000		123921011	BR			REGS	
EDI_ENDOFFILE
