EDI_BBE_20151005
tablename	actflag	announcedate	acttime	bbeid	secid	exchgcd	curencd	bbgexhid	bbgexhtk
BBE	I	2015/10/05	2015/10/05	715048	4603664			BBG009ZHC518	AFNCN 5 12/31/20
BBE	I	2015/10/05	2015/10/05	716488	4616910			BBG00B42ZKD9	SHIMIZ 0 10/16/20
BBE	I	2015/10/05	2015/10/05	716506	4614646			BBG00B3GZDK7	NGGLN 0.9 11/02/20 NGLN
EDI_ENDOFFILE
