EDI_IFCHG_20151005
TableName	Actflag	Created	Changed	IfchgID	SecID	ISIN	NotificationDate	OldIntPayFrqncy	OldIntPayDate1	OldIntPayDate2	OldIntPayDate3	OldIntPayDate4	NewIntPayFrqncy	NewIntPayDate1	NewIntPayDate2	NewIntPayDate3	NewIntPayDate4	Eventtype
IFCHG	I	2015/10/05	2015/10/05	137171	2182377	DE000A1AYDS2	2010/11/09	ANL					ANL	0811				CORR
EDI_ENDOFFILE
