EDI_ISSUR_20151005
TableName	Actflag	Created	Changed	IssID	IssuerName	IndusID	CntryofIncorp	FinancialYearEnd	Shortname	LegalName	CntryofDom	StateofDom		Debttype
ISSUR	U	2001/04/10	2015/10/05	26567	Prakash Industries Ltd.	67	IN	3103	Prakash Indus	F				C
ISSUR	U	2005/01/08	2015/10/05	88673	Phh Corp.	155	US	3112		F				C
ISSUR	U	2001/05/05	2015/10/05	34143	Walter Investment Management Corp	46	US	3112		F				C
ISSUR	U	2008/01/29	2015/10/05	117845	Suntec Real Estate Investment Trust	120	SG	3112	Suntec Real Est	F				C
ISSUR	U	2006/12/11	2015/10/05	105016	Haitian International Holdings	38	KY	3112		F				C
ISSUR	U	2001/04/10	2015/10/05	25543	Larsen & Toubro Ltd.	35	IN	3103	Larsen & Toubro	F				C
EDI_ENDOFFILE
