EDI_RCONV_20151005
TableName	Actflag	Created	Changed	RconvID	SecID	ISIN	EffectiveDate	OldInterestAccrualConvention	NewInterestAccrualConvention	OldConvMethod	NewConvMethod	Eventtype	Notes
EDI_ENDOFFILE
